%YAML 1.1
%TAG !u! tag:unity3d.com,2011:
--- !u!114 &11400000
MonoBehaviour:
  m_ObjectHideFlags: 0
  m_CorrespondingSourceObject: {fileID: 0}
  m_PrefabInstance: {fileID: 0}
  m_PrefabAsset: {fileID: 0}
  m_GameObject: {fileID: 0}
  m_Enabled: 1
  m_EditorHideFlags: 0
  m_Script: {fileID: 11500000, guid: b9ea6b28cda45a8408b6624518a89c3f, type: 3}
  m_Name: Blue Crystal
  m_EditorClassIdentifier: 
  name: Blue Crystal
  description: Shining blue crystal
  visual: {fileID: 21300000, guid: c340e43d5066abd4cadbae5aa291f0ee, type: 3}
  prefab: {fileID: 1773265280738926538, guid: 8063569bc3c6c154b9a317c815dc68b1, type: 3}
  stackable: 1
  maxStack: 99
  expGain: 0
  healthEffect: 0
  hungerEffect: 0
  thirstEffect: 0
  armorPoints: 0
  attackPoints: 0
  itemType: 0
  equipmentType: 0
  baseGoldCost: 75
  baseGemCost: 0
  baseGoldSellPrice: 25
  baseGemSellPrice: 0
