%YAML 1.1
%TAG !u! tag:unity3d.com,2011:
--- !u!1 &2585832367209679853
GameObject:
  m_ObjectHideFlags: 0
  m_CorrespondingSourceObject: {fileID: 0}
  m_PrefabInstance: {fileID: 0}
  m_PrefabAsset: {fileID: 0}
  serializedVersion: 6
  m_Component:
  - component: {fileID: 2585832367209679842}
  - component: {fileID: 2585832367209679841}
  - component: {fileID: 2585832367209679840}
  - component: {fileID: 2585832367209679843}
  - component: {fileID: 2585832367209679846}
  m_Layer: 0
  m_Name: Main Camera
  m_TagString: MainCamera
  m_Icon: {fileID: 0}
  m_NavMeshLayer: 0
  m_StaticEditorFlags: 0
  m_IsActive: 1
--- !u!4 &2585832367209679842
Transform:
  m_ObjectHideFlags: 0
  m_CorrespondingSourceObject: {fileID: 0}
  m_PrefabInstance: {fileID: 0}
  m_PrefabAsset: {fileID: 0}
  m_GameObject: {fileID: 2585832367209679853}
  m_LocalRotation: {x: 0.052264173, y: 0.052264173, z: -0.002739046, w: 0.9972609}
  m_LocalPosition: {x: -19.43, y: 2.0447912, z: 6.75}
  m_LocalScale: {x: 1, y: 1, z: 1}
  m_ConstrainProportionsScale: 0
  m_Children: []
  m_Father: {fileID: 0}
  m_RootOrder: 0
  m_LocalEulerAnglesHint: {x: 6, y: 6, z: 0}
--- !u!20 &2585832367209679841
Camera:
  m_ObjectHideFlags: 0
  m_CorrespondingSourceObject: {fileID: 0}
  m_PrefabInstance: {fileID: 0}
  m_PrefabAsset: {fileID: 0}
  m_GameObject: {fileID: 2585832367209679853}
  m_Enabled: 1
  serializedVersion: 2
  m_ClearFlags: 1
  m_BackGroundColor: {r: 0.19215687, g: 0.3019608, b: 0.4745098, a: 0}
  m_projectionMatrixMode: 1
  m_GateFitMode: 2
  m_FOVAxisMode: 0
  m_SensorSize: {x: 36, y: 24}
  m_LensShift: {x: 0, y: 0}
  m_FocalLength: 50
  m_NormalizedViewPortRect:
    serializedVersion: 2
    x: 0
    y: 0
    width: 1
    height: 1
  near clip plane: 0.3
  far clip plane: 1000
  field of view: 70
  orthographic: 0
  orthographic size: 5
  m_Depth: -1
  m_CullingMask:
    serializedVersion: 2
    m_Bits: 4294967295
  m_RenderingPath: -1
  m_TargetTexture: {fileID: 0}
  m_TargetDisplay: 0
  m_TargetEye: 3
  m_HDR: 1
  m_AllowMSAA: 1
  m_AllowDynamicResolution: 0
  m_ForceIntoRT: 0
  m_OcclusionCulling: 1
  m_StereoConvergence: 10
  m_StereoSeparation: 0.022
--- !u!81 &2585832367209679840
AudioListener:
  m_ObjectHideFlags: 0
  m_CorrespondingSourceObject: {fileID: 0}
  m_PrefabInstance: {fileID: 0}
  m_PrefabAsset: {fileID: 0}
  m_GameObject: {fileID: 2585832367209679853}
  m_Enabled: 1
--- !u!114 &2585832367209679843
MonoBehaviour:
  m_ObjectHideFlags: 0
  m_CorrespondingSourceObject: {fileID: 0}
  m_PrefabInstance: {fileID: 0}
  m_PrefabAsset: {fileID: 0}
  m_GameObject: {fileID: 2585832367209679853}
  m_Enabled: 1
  m_EditorHideFlags: 0
  m_Script: {fileID: 11500000, guid: 455241d876ac8b44d8a43bf97c726307, type: 3}
  m_Name: 
  m_EditorClassIdentifier: 
  player: {fileID: 0}
  pivotOffset: {x: 0, y: 1.7, z: 0}
  camOffset: {x: 0, y: 0, z: -3.3}
  smooth: 10
  horizontalAimingSpeed: 6
  verticalAimingSpeed: 6
  maxVerticalAngle: 30
  minVerticalAngle: -60
  XAxis: Analog X
  YAxis: Analog Y
--- !u!114 &2585832367209679846
MonoBehaviour:
  m_ObjectHideFlags: 0
  m_CorrespondingSourceObject: {fileID: 0}
  m_PrefabInstance: {fileID: 0}
  m_PrefabAsset: {fileID: 0}
  m_GameObject: {fileID: 2585832367209679853}
  m_Enabled: 1
  m_EditorHideFlags: 0
  m_Script: {fileID: 11500000, guid: 94a6766411145ab4ab82a42308d82448, type: 3}
  m_Name: 
  m_EditorClassIdentifier: 
  interactRange: 2.6
  playerInteractBehaviour: {fileID: 0}
  shopManager: {fileID: 0}
  interactText: {fileID: 0}
  onPickupText: {fileID: 0}
  onCoinsAddText: {fileID: 0}
  layerMask:
    serializedVersion: 2
    m_Bits: 328
