%YAML 1.1
%TAG !u! tag:unity3d.com,2011:
--- !u!114 &11400000
MonoBehaviour:
  m_ObjectHideFlags: 0
  m_CorrespondingSourceObject: {fileID: 0}
  m_PrefabInstance: {fileID: 0}
  m_PrefabAsset: {fileID: 0}
  m_GameObject: {fileID: 0}
  m_Enabled: 1
  m_EditorHideFlags: 0
  m_Script: {fileID: 11500000, guid: e2a1d9228c4fe8042808f4255ec0cc50, type: 3}
  m_Name: IronPant
  m_EditorClassIdentifier: 
  craftableItem: {fileID: 11400000, guid: 6ac313857a6c4e6478797db68767c0f6, type: 2}
  requiredItems:
  - itemData: {fileID: 11400000, guid: f1bca2a8ea8627341ba7d595af499af1, type: 2}
    count: 7
